<?xml version="1.0" encoding="utf-8"?>
<!-- Generator: Adobe Illustrator 19.0.0, SVG Export Plug-In . SVG Version: 6.00 Build 0)  -->
<svg version="1.1" id="Layer_1" xmlns="http://www.w3.org/2000/svg" xmlns:xlink="http://www.w3.org/1999/xlink" x="0px" y="0px"
	 viewBox="0 0 368 489.5" style="enable-background:new 0 0 368 489.5;" xml:space="preserve">
<style type="text/css">
	.st0{fill:#457085;}
	.st1{fill:#FFFFFF;}
	.st2{fill:none;stroke:#FFFFFF;stroke-miterlimit:10;}
</style>
<path id="XMLID_143_" class="st0" d="M361.3,75.8v356.3c0,31.7-25.7,57.3-57.3,57.3H56v-95H37.8c-15,0-27.3-12.2-27.3-27.3V140.8
	c0-15,12.2-27.3,27.3-27.3H56v-95h248C335.7,18.5,361.3,44.2,361.3,75.8z"/>
<path class="st1" d="M304,18.5H56v112h11.3V29.8H304c25.4,0,46,20.6,46,46v356.3c0,25.4-20.6,46-46,46H67.3V377.5H56v112h248
	c31.7,0,57.3-25.7,57.3-57.3V75.8C361.3,44.2,335.7,18.5,304,18.5z"/>
<g id="XMLID_10_">
	<path id="XMLID_111_" class="st1" d="M169.7,458.8v-50.2h36.1c16.2,0,29.4-13.2,29.4-29.4v-251c0-16.2-13.2-29.4-29.4-29.4h-36.1
		V45.2h111.5c41,0,51.7,10.6,51.7,51.7v310.3c0,23-2.7,35.2-9.4,41.9c-6.8,6.9-19,9.7-42.3,9.7H169.7z"/>
	<path id="XMLID_105_" class="st1" d="M281.2,50.8c19.7,0,31.2,2.7,37.2,8.7c6.1,6,8.8,17.5,8.8,37.3v310.3c0,21.1-2.3,32.5-7.7,38
		c-5.5,5.6-17,8-38.3,8H175.3v-38.8h30.4c19.3,0,35.1-15.7,35.1-35.1v-251c0-19.3-15.7-35.1-35.1-35.1h-30.4V50.8H281.2 M281.2,39.5
		H164v65h41.8c13.1,0,23.8,10.6,23.8,23.8v251c0,13.1-10.6,23.8-23.8,23.8H164v61.5h117.2c47.2,0,57.3-11.3,57.3-57.3V96.8
		C338.5,52.3,325.3,39.5,281.2,39.5L281.2,39.5z"/>
</g>
<rect x="77.5" y="39.5" class="st1" width="76" height="66.5"/>
<rect x="77.8" y="403.3" class="st1" width="75.5" height="63"/>
<g>
	<path class="st1" d="M192.8,113.5h-58.6v17h58.6c5.7,0,10.3,4.6,10.3,10.3v226.5c0,5.6-4.6,10.3-10.3,10.3h-58.6v17h58.6
		c15,0,27.3-12.2,27.3-27.3V140.8C220,125.7,207.8,113.5,192.8,113.5z M37.8,130.5h60.4v-17H37.8c-15,0-27.3,12.2-27.3,27.3v226.5
		c0,15,12.2,27.3,27.3,27.3h60.4v-17H37.8c-5.7,0-10.3-4.6-10.3-10.3V140.8C27.5,135.1,32.1,130.5,37.8,130.5z"/>
</g>
<rect x="106.9" y="113.8" class="st1" width="18.4" height="8.8"/>
<rect x="106.3" y="385.8" class="st1" width="18.4" height="8.8"/>
<g>
	<path id="XMLID_116_" class="st1" d="M92,251L92,251L92,251L92,251z"/>
</g>
<path class="st1" d="M161.7,224.9c-2-3.7-4.4-7.2-7.2-10.3c-4-4.5-8.9-8.3-14.3-11.1c-3.1-1.7-6.4-3-9.8-4
	c-4.6-1.3-9.5-2.1-14.5-2.1c-5.1,0-10.1,0.8-14.8,2.2c-3.4,1-6.7,2.4-9.8,4c-5.4,2.9-10.2,6.7-14.2,11.3c-2.8,3.1-5.2,6.6-7.2,10.4
	c-3.8,7.2-5.9,15.4-5.9,24.1c0,23.3,15.3,43,36.5,49.6c2.7,0.8,5.4,1.5,8.3,1.8c2.3,0.3,4.8,0.5,7.2,0.5c0.9,0,1.8,0,2.7-0.1h0
	c4.3-0.2,8.4-1,12.3-2.2h0c21.3-6.5,36.8-26.3,36.8-49.7C167.8,240.5,165.6,232.2,161.7,224.9z M115.9,206c3.9,0,7.7,0.5,11.2,1.5
	L115.8,235l-11.4-27.5C108,206.5,111.9,206,115.9,206z M94.2,287c-13-7.5-21.7-21.6-21.7-37.6c0-4.5,0.7-8.9,2-13.1l20.4,49.1l1,2.4
	C95.3,287.6,94.7,287.3,94.2,287z M122.3,292.4c-2.1,0.3-4.2,0.5-6.4,0.5c-2.3,0-4.6-0.2-6.8-0.5c-1.8-0.3-3.5-0.7-5.2-1.2l2.4-5.7
	l9.5-22.8l9.4,22.8l2.4,5.8C125.9,291.7,124.1,292.1,122.3,292.4z M130.9,271.6l-8.5-20.6h-13.3l-8.5,20.6L92,251h0v0l-11.2-27.1
	c3.7-5,8.4-9.2,13.8-12.3l14.6,35.3h13.1l14.7-35.4h0c5.4,3,10.2,7.2,13.9,12.2L130.9,271.6z M137.4,287.2c-0.6,0.3-1.2,0.7-1.8,1
	l1.1-2.7l20.5-49.6c1.4,4.3,2.2,8.8,2.2,13.5C159.3,265.6,150.5,279.7,137.4,287.2z"/>
<polygon class="st1" points="92,251 92,251 92,251 "/>
<polygon class="st1" points="92,251 92,251 92,251 "/>
<g id="XMLID_126_">
	<path id="XMLID_127_" class="st1" d="M71.3,171.9c0,3.6-0.8,6.4-2.4,8.4c-1.6,2-4,2.9-7,2.9s-5.4-1-7-2.9c-1.6-2-2.4-4.8-2.4-8.4
		s0.8-6.5,2.4-8.4c1.6-1.9,4-2.9,7-2.9s5.4,1,7,2.9C70.5,165.4,71.3,168.2,71.3,171.9z M56.8,171.9c0,2.5,0.4,4.3,1.3,5.6
		c0.8,1.2,2.1,1.9,3.8,1.9c3.4,0,5-2.5,5-7.4c0-5-1.7-7.4-5-7.4c-1.7,0-2.9,0.6-3.8,1.9C57.2,167.6,56.8,169.4,56.8,171.9z"/>
	<path id="XMLID_130_" class="st1" d="M78.7,174.5v8.4h-4.2v-22h5.8c2.7,0,4.7,0.5,6,1.6c1.3,1.1,1.9,2.7,1.9,5c0,1.3-0.3,2.4-1,3.5
		c-0.6,1-1.5,1.8-2.7,2.4c3,4.9,4.9,8.1,5.8,9.6h-4.7l-4.7-8.4H78.7z M78.7,170.7H80c1.3,0,2.3-0.2,2.9-0.7c0.6-0.5,0.9-1.3,0.9-2.3
		c0-1-0.3-1.8-1-2.2c-0.6-0.4-1.6-0.7-3-0.7h-1.3V170.7z"/>
	<path id="XMLID_133_" class="st1" d="M91.9,182.9v-22h4.2v22H91.9z"/>
	<path id="XMLID_135_" class="st1" d="M107.6,170.6h7.9V182c-1.3,0.5-2.5,0.8-3.6,1c-1.1,0.2-2.3,0.3-3.4,0.3c-3,0-5.3-1-6.8-2.9
		c-1.6-2-2.4-4.8-2.4-8.4c0-3.6,0.9-6.3,2.7-8.3c1.8-2,4.4-3,7.6-3c2,0,4,0.5,5.9,1.4l-1.4,3.7c-1.4-0.8-2.9-1.2-4.5-1.2
		c-1.8,0-3.3,0.7-4.4,2c-1.1,1.4-1.6,3.2-1.6,5.5c0,2.4,0.4,4.2,1.3,5.5s2.2,1.9,3.8,1.9c0.9,0,1.8-0.1,2.7-0.3v-4.6h-3.8V170.6z"/>
	<path id="XMLID_137_" class="st1" d="M119.3,182.9v-22h4.2v22H119.3z"/>
	<path id="XMLID_139_" class="st1" d="M145.1,182.9h-5.3l-8.6-16.7h-0.1c0.2,2.9,0.3,5,0.3,6.3v10.4h-3.8v-22h5.3l8.6,16.5h0.1
		c-0.1-2.9-0.2-4.9-0.2-6.1v-10.4h3.8V182.9z"/>
	<path id="XMLID_141_" class="st1" d="M161.3,182.9l-1.4-5.2h-7.2l-1.4,5.2h-4.5l7-22.1h5.1l7,22.1H161.3z M158.9,173.8
		c-1.3-4.7-2.1-7.4-2.2-8.1c-0.2-0.6-0.3-1.1-0.4-1.5c-0.3,1.3-1.2,4.5-2.6,9.5H158.9z"/>
	<path id="XMLID_145_" class="st1" d="M167.4,182.9v-22h4.2v18.2h8v3.9H167.4z"/>
</g>
<g id="XMLID_8_">
	<path id="XMLID_13_" class="st1" d="M91.2,322.8c0,2.4-0.7,4.2-2,5.4s-3.2,1.9-5.7,1.9h-1.8v7.8h-4.2v-22h6.3
		c2.4,0,4.2,0.6,5.5,1.7C90.6,318.8,91.2,320.5,91.2,322.8z M81.8,326.3h1.4c1.3,0,2.3-0.3,2.9-0.8c0.6-0.6,1-1.4,1-2.5
		c0-1.1-0.3-1.9-0.8-2.4s-1.4-0.8-2.5-0.8h-1.9V326.3z"/>
	<path id="XMLID_16_" class="st1" d="M106.2,337.9l-1.4-5.2h-7.2l-1.4,5.2h-4.5l7-22.1h5.1l7,22.1H106.2z M103.7,328.8
		c-1.3-4.7-2.1-7.4-2.2-8.1c-0.2-0.6-0.3-1.1-0.4-1.5c-0.3,1.3-1.2,4.5-2.6,9.5H103.7z"/>
	<path id="XMLID_100_" class="st1" d="M116.5,329.5v8.4h-4.2v-22h5.8c2.7,0,4.7,0.5,6,1.6c1.3,1.1,1.9,2.7,1.9,5
		c0,1.3-0.3,2.4-1,3.5c-0.6,1-1.5,1.8-2.7,2.4c3,4.9,4.9,8.1,5.8,9.6h-4.7l-4.7-8.4H116.5z M116.5,325.7h1.4c1.3,0,2.3-0.2,2.9-0.7
		c0.6-0.5,0.9-1.3,0.9-2.3c0-1-0.3-1.8-1-2.2c-0.6-0.4-1.6-0.7-3-0.7h-1.3V325.7z"/>
	<path id="XMLID_104_" class="st1" d="M137.3,337.9h-4.2v-18.1h-5.4v-3.9h15v3.9h-5.4V337.9z"/>
	<path id="XMLID_115_" class="st1" d="M156.5,331.8c0,2-0.6,3.6-1.9,4.7c-1.3,1.1-3.1,1.7-5.4,1.7c-2.1,0-4-0.4-5.6-1.3v-4.3
		c1.3,0.7,2.5,1.1,3.4,1.4c0.9,0.3,1.8,0.4,2.5,0.4c0.9,0,1.6-0.2,2.1-0.6c0.5-0.4,0.7-1,0.7-1.7c0-0.4-0.1-0.8-0.3-1.2
		c-0.2-0.3-0.5-0.7-1-1c-0.4-0.3-1.3-0.8-2.6-1.5c-1.2-0.6-2.1-1.2-2.7-1.8s-1.1-1.3-1.4-2c-0.4-0.8-0.5-1.7-0.5-2.7
		c0-1.9,0.6-3.5,1.8-4.6c1.2-1.1,2.8-1.7,4.9-1.7c1,0,2,0.1,2.9,0.4c0.9,0.3,1.9,0.7,2.9,1.1l-1.4,3.6c-1.1-0.5-1.9-0.8-2.6-1
		c-0.7-0.2-1.4-0.3-2-0.3c-0.8,0-1.4,0.2-1.8,0.6s-0.6,0.9-0.6,1.6c0,0.4,0.1,0.8,0.3,1.1c0.2,0.3,0.4,0.6,0.8,0.9
		c0.4,0.3,1.3,0.8,2.7,1.5c1.9,1,3.1,2,3.8,3C156.2,329.2,156.5,330.4,156.5,331.8z"/>
</g>
<path class="st2" d="M187.5,364H44.8c-3.2,0-5.8-2.6-5.8-5.8V148.8c0-3.2,2.6-5.8,5.8-5.8h142.7c3.2,0,5.8,2.6,5.8,5.8v209.4
	C193.3,361.4,190.7,364,187.5,364z"/>
</svg>
